<?xml version="1.0" encoding="UTF-8" standalone="no"?>
<!-- Created with Inkscape (http://www.inkscape.org/) -->
<svg xmlns:dc="http://purl.org/dc/elements/1.1/" xmlns:cc="http://creativecommons.org/ns#" xmlns:rdf="http://www.w3.org/1999/02/22-rdf-syntax-ns#" xmlns:svg="http://www.w3.org/2000/svg" xmlns="http://www.w3.org/2000/svg" xmlns:xlink="http://www.w3.org/1999/xlink" xmlns:sodipodi="http://sodipodi.sourceforge.net/DTD/sodipodi-0.dtd" xmlns:inkscape="http://www.inkscape.org/namespaces/inkscape" width="297mm" height="210mm" id="svg2985" version="1.1" inkscape:version="0.48.3.1 r9886" sodipodi:docname="kalamar.svg">
  <defs id="defs2987">
    <linearGradient inkscape:collect="always" id="linearGradient4120">
      <stop style="stop-color:#c51311;stop-opacity:1;" offset="0" id="stop4122"/>
      <stop style="stop-color:#c51311;stop-opacity:0;" offset="1" id="stop4124"/>
    </linearGradient>
    <linearGradient id="linearGradient3902">
      <stop style="stop-color:#ff1a19;stop-opacity:1;" offset="0" id="stop3904"/>
      <stop id="stop3920" offset="0.25" style="stop-color:#ff0000;stop-opacity:0.74901961;"/>
      <stop id="stop3918" offset="0.5" style="stop-color:#ff0000;stop-opacity:0.49803922;"/>
      <stop style="stop-color:#ff0000;stop-opacity:0;" offset="1" id="stop3906"/>
    </linearGradient>
    <linearGradient inkscape:collect="always" xlink:href="#linearGradient4120" id="linearGradient4126" x1="559.70361" y1="190.14915" x2="614.98297" y2="117.59496" gradientUnits="userSpaceOnUse"/>
    <linearGradient inkscape:collect="always" xlink:href="#linearGradient4120" id="linearGradient4285" gradientUnits="userSpaceOnUse" x1="559.70361" y1="190.14915" x2="614.98297" y2="117.59496"/>
  </defs>
  <sodipodi:namedview inkscape:document-units="mm" pagecolor="#ffffff" bordercolor="#666666" borderopacity="1.0" inkscape:pageopacity="0.0" inkscape:pageshadow="2" inkscape:zoom="0.81142432" inkscape:cx="727.26148" inkscape:cy="261.95767" inkscape:current-layer="layer1" id="namedview2989" showgrid="false" showguides="true" inkscape:guide-bbox="true" inkscape:window-width="969" inkscape:window-height="576" inkscape:window-x="55" inkscape:window-y="24" inkscape:window-maximized="1"/>
  <g inkscape:label="Layer 1" inkscape:groupmode="layer" id="layer1">
    <rect style="fill:#ffffff;fill-opacity:1;fill-rule:evenodd;stroke:#000000;stroke-width:3.0999999;stroke-linecap:round;stroke-linejoin:round;stroke-miterlimit:4;stroke-opacity:0.27999998;stroke-dasharray:none" id="rect4289" width="1057.3998" height="744.00763" x="-4.784615" y="4.8714685"/>
    <g id="g4258" transform="translate(72.739525,52.440123)">
      <path sodipodi:nodetypes="assscssssa" inkscape:connector-curvature="0" id="path3845-3-6" d="M 723.06407,459.07478 C 681.8976,521.66338 544.93794,348.06255 534.59651,336.649 461.31295,255.76794 392.07831,218.17094 353.52866,328.75672 298.38456,486.9463 152.57481,417.82638 204.18577,459.07478 c 51.926,41.50018 156.8374,-42.75701 170.90472,-75.83502 46.90422,-92.30125 68.92583,52.96609 66.55135,75.83502 -27.13475,261.33824 63.40064,-148.84279 73.65409,-62.81315 14.05291,117.90826 76.73348,193.96977 62.58103,127.07255 -5.85046,-27.65453 -16.33868,-176.15765 9.26945,-154.77215 130.59104,109.05735 165.82952,45.03542 135.91766,90.51275 z" style="fill:#c51311;fill-opacity:1;stroke:#000000;stroke-width:1px;stroke-linecap:butt;stroke-linejoin:miter;stroke-opacity:1"/>
      <path id="path3764" d="m 483.53125,102.09375 c -7.97142,0.0162 -15.86394,0.67922 -23.4375,1.9375 -45.69892,7.59247 -95.24551,32.96473 -118.0625,73.28125 -18.18492,32.13186 -13.74207,75.87416 -1.625,110.75 3.1968,9.20116 7.26524,18.55411 12.1875,27.53125 -6.58106,5.81348 -12.66447,12.1653 -18.125,19 -10.34143,12.9439 -47.47526,97.58247 -79.0625,144.28125 -47.52505,70.26133 6.97748,42.86251 110.59375,-90.5 18.35603,-23.62568 16.28049,35.54695 5.8125,70.6875 -46.44056,155.89895 56.54677,-12.81234 66.03125,-43 26.04037,-82.8826 71.8886,244.77094 77.09375,62.8125 0.65744,-22.98247 16.18953,-168.11375 63.09375,-75.8125 C 592.09857,436.14051 677.95483,534.93847 707.5,500.09375 723.53961,481.17708 660.5191,510.68958 605.375,352.5 600.7553,339.24766 594.31634,327.68258 586.46875,317.75 601.8159,295.45337 611.23955,268.29596 612.375,242.46875 614.2066,200.80669 594.76564,154.3098 562.71875,127.625 541.64797,110.07979 512.00062,102.0357 483.53125,102.09375 z" style="fill:url(#linearGradient4285);fill-opacity:1;fill-rule:evenodd;stroke:#000000;stroke-width:1px;stroke-linecap:butt;stroke-linejoin:miter;stroke-opacity:1" inkscape:connector-curvature="0"/>
      <path transform="matrix(0.49000002,0,0,-0.62857143,335.08544,350.528)" sodipodi:open="true" sodipodi:end="6.268783" sodipodi:start="0" d="m 120.52262,198.48534 c 0,31.4824 -18.22967,57.00394 -40.717101,57.00394 -22.487434,0 -40.717102,-25.52154 -40.717102,-57.00394 0,-31.48241 18.229668,-57.00394 40.717102,-57.00394 22.258761,0 40.392311,25.02394 40.712881,56.18298" sodipodi:ry="57.003941" sodipodi:rx="40.717102" sodipodi:cy="198.48534" sodipodi:cx="79.805519" id="path3928-3" style="fill:#ffffff;fill-opacity:1;fill-rule:evenodd;stroke:#000000;stroke-width:1.801875;stroke-opacity:1" sodipodi:type="arc"/>
      <path transform="translate(316.77904,4.07171)" sodipodi:open="true" sodipodi:end="6.268783" sodipodi:start="0" d="m 63.518679,234.31639 c 0,8.54523 -4.37512,15.4725 -9.772105,15.4725 -5.396984,0 -9.772104,-6.92727 -9.772104,-15.4725 0,-8.54522 4.37512,-15.4725 9.772104,-15.4725 5.342103,0 9.694155,6.79222 9.771091,15.24967" sodipodi:ry="15.472498" sodipodi:rx="9.7721043" sodipodi:cy="234.31639" sodipodi:cx="53.746574" id="path3966" style="fill:#000000;fill-opacity:1;fill-rule:evenodd;stroke:#000000;stroke-width:3.0999999;stroke-linecap:round;stroke-linejoin:round;stroke-miterlimit:4;stroke-opacity:1;stroke-dasharray:none" sodipodi:type="arc"/>
      <path transform="matrix(0.49000002,0,0,-0.62857143,391.68222,350.12083)" sodipodi:open="true" sodipodi:end="6.268783" sodipodi:start="0" d="m 120.52262,198.48534 c 0,31.4824 -18.22967,57.00394 -40.717101,57.00394 -22.487434,0 -40.717102,-25.52154 -40.717102,-57.00394 0,-31.48241 18.229668,-57.00394 40.717102,-57.00394 22.258761,0 40.392311,25.02394 40.712881,56.18298" sodipodi:ry="57.003941" sodipodi:rx="40.717102" sodipodi:cy="198.48534" sodipodi:cx="79.805519" id="path3928-3-4" style="fill:#ffffff;fill-opacity:1;fill-rule:evenodd;stroke:#000000;stroke-width:1.801875;stroke-opacity:1" sodipodi:type="arc"/>
      <path transform="translate(373.37582,3.6645442)" sodipodi:open="true" sodipodi:end="6.268783" sodipodi:start="0" d="m 63.518679,234.31639 c 0,8.54523 -4.37512,15.4725 -9.772105,15.4725 -5.396984,0 -9.772104,-6.92727 -9.772104,-15.4725 0,-8.54522 4.37512,-15.4725 9.772104,-15.4725 5.342103,0 9.694155,6.79222 9.771091,15.24967" sodipodi:ry="15.472498" sodipodi:rx="9.7721043" sodipodi:cy="234.31639" sodipodi:cx="53.746574" id="path3966-5" style="fill:#000000;fill-opacity:1;fill-rule:evenodd;stroke:#000000;stroke-width:3.0999999;stroke-linecap:round;stroke-linejoin:round;stroke-miterlimit:4;stroke-opacity:1;stroke-dasharray:none" sodipodi:type="arc"/>
      <path sodipodi:nodetypes="ssss" inkscape:connector-curvature="0" id="path4014" d="m 366.6832,298.69103 c 55.71229,7.16243 97.52892,-17.91174 76.41546,-4.58893 -57.29032,36.15078 -56.69494,31.19577 -60.89897,28.35028 -13.98339,-9.46462 -26.8288,-25.21567 -15.51649,-23.76135 z" style="fill:#ffffff;fill-opacity:1;stroke:#000000;stroke-width:0.99999994px;stroke-linecap:butt;stroke-linejoin:miter;stroke-opacity:1"/>
      <path inkscape:transform-center-y="-4.5855655" inkscape:transform-center-x="-13.637768" transform="matrix(0.33114171,-0.01055108,-0.04343606,0.41368724,268.40611,242.97224)" sodipodi:open="true" sodipodi:end="6.268783" sodipodi:start="0" d="m 661.24572,99.135612 c 0,24.286428 -13.85455,43.974468 -30.945,43.974468 -17.09045,0 -30.945,-19.68804 -30.945,-43.974468 0,-24.286428 13.85455,-43.974468 30.945,-43.974468 16.91666,0 30.69816,19.304187 30.94179,43.341157" sodipodi:ry="43.974468" sodipodi:rx="30.944996" sodipodi:cy="99.135612" sodipodi:cx="630.30072" id="path3922-9" style="opacity:0.3816794;fill:#ffffff;fill-opacity:1;fill-rule:evenodd;stroke:none" sodipodi:type="arc"/>
      <path inkscape:transform-center-y="-6.5953762" inkscape:transform-center-x="-7.5589481" transform="matrix(0.20866473,-0.09361918,0.07541124,0.28441028,209.70906,306.73006)" sodipodi:open="true" sodipodi:end="6.268783" sodipodi:start="0" d="m 661.24572,99.135612 c 0,24.286428 -13.85455,43.974468 -30.945,43.974468 -17.09045,0 -30.945,-19.68804 -30.945,-43.974468 0,-24.286428 13.85455,-43.974468 30.945,-43.974468 16.91666,0 30.69816,19.304187 30.94179,43.341157" sodipodi:ry="43.974468" sodipodi:rx="30.944996" sodipodi:cy="99.135612" sodipodi:cx="630.30072" id="path3922-9-5" style="opacity:0.3816794;fill:#ffffff;fill-opacity:1;fill-rule:evenodd;stroke:none" sodipodi:type="arc"/>
      <path sodipodi:nodetypes="ssss" inkscape:connector-curvature="0" id="path4014-3" d="m 376.45781,313.54972 c 27.19748,2.24043 47.49304,-8.54548 37.43287,-2.27444 -27.29771,17.01615 -27.43508,13.75463 -29.5229,12.56222 -6.94442,-3.96625 -13.43239,-10.74269 -7.90997,-10.28778 z" style="fill:#a3100e;fill-opacity:1;stroke:#000000;stroke-width:1px;stroke-linecap:butt;stroke-linejoin:miter;stroke-opacity:1"/>
      <path sodipodi:nodetypes="cc" inkscape:connector-curvature="0" id="path4194" d="m 393.77052,316.86461 c -1.45347,-0.47877 -7.37951,0.79705 -10.075,3.73383" style="fill:none;stroke:#000000;stroke-width:1px;stroke-linecap:butt;stroke-linejoin:miter;stroke-opacity:1"/>
      <path sodipodi:nodetypes="cc" inkscape:connector-curvature="0" id="path4220" d="m 341.67835,192.64579 c 5.67438,-14.60534 17.2485,-32.35578 27.48082,-34.80905" style="fill:none;stroke:#000000;stroke-width:1px;stroke-linecap:butt;stroke-linejoin:miter;stroke-opacity:0.27999998"/>
      <path sodipodi:nodetypes="cc" inkscape:connector-curvature="0" id="path4222" d="m 589.77239,213.06744 c 11.52278,19.75137 12.91768,41.06088 -2.3189,64.92907" style="fill:#c51311;fill-opacity:1;stroke:#000000;stroke-width:1px;stroke-linecap:butt;stroke-linejoin:miter;stroke-opacity:0.27999998"/>
      <path sodipodi:nodetypes="cc" inkscape:connector-curvature="0" id="path4224" d="m 337.78576,356.83896 c -8.4739,8.25006 -25.63982,35.98583 -34.78343,61.83721" style="fill:none;stroke:#000000;stroke-width:1px;stroke-linecap:butt;stroke-linejoin:miter;stroke-opacity:0.27659577"/>
      <path sodipodi:nodetypes="ccc" inkscape:connector-curvature="0" id="path4234" d="m 384.00511,403.37723 c 0.22999,-1.63405 5.82071,-27.49622 -6.14408,-29.88258 -13.49274,2.65594 -13.83986,5.60096 -19.27008,12.28816" style="fill:none;stroke:#000000;stroke-width:1px;stroke-linecap:butt;stroke-linejoin:miter;stroke-opacity:0.27999998"/>
      <path sodipodi:nodetypes="cc" inkscape:connector-curvature="0" id="path4236" d="m 427.85152,423.20585 c -18.26692,48.04003 -39.32532,65.07789 -33.51318,60.32371" style="fill:none;stroke:#000000;stroke-width:1px;stroke-linecap:butt;stroke-linejoin:miter;stroke-opacity:0.27999998"/>
      <path sodipodi:nodetypes="cc" inkscape:connector-curvature="0" id="path4238" d="m 202.7547,450.85422 c 21.06357,16.23515 30.18986,14.56438 39.65725,13.40527" style="fill:#c41311;fill-opacity:1;stroke:#000000;stroke-width:1px;stroke-linecap:butt;stroke-linejoin:miter;stroke-opacity:0.27999998"/>
      <path sodipodi:nodetypes="cc" inkscape:connector-curvature="0" id="path4240" d="m 445.7252,445.82724 c 0.85576,68.72758 -3.23439,53.3745 -5.02697,77.0803" style="fill:none;stroke:#000000;stroke-width:1px;stroke-linecap:butt;stroke-linejoin:miter;stroke-opacity:0.27999998"/>
      <path sodipodi:nodetypes="cc" inkscape:connector-curvature="0" id="path4242" d="m 503.8147,410.07986 c 3.46198,-32.82061 30.50504,-92.38082 55.85529,-51.94543" style="fill:none;stroke:#000000;stroke-width:1px;stroke-linecap:butt;stroke-linejoin:miter;stroke-opacity:0.27999998"/>
      <path sodipodi:nodetypes="cc" inkscape:connector-curvature="0" id="path4244" d="m 529.50814,443.59303 c 5.946,24.79226 13.41721,45.77149 22.34211,63.11648" style="fill:none;stroke:#000000;stroke-width:1px;stroke-linecap:butt;stroke-linejoin:miter;stroke-opacity:0.27999998"/>
      <path sodipodi:nodetypes="cc" inkscape:connector-curvature="0" id="path4246" d="m 580.895,326.85548 c 21.91165,22.72622 23.23644,67.01939 34.63028,68.702" style="fill:none;stroke:#000000;stroke-width:1px;stroke-linecap:butt;stroke-linejoin:miter;stroke-opacity:0.27999998"/>
      <path sodipodi:nodetypes="cc" inkscape:connector-curvature="0" id="path4248" d="m 645.68714,418.45815 c 45.03696,32.9737 67.99564,24.43941 59.2066,27.92764" style="fill:none;stroke:#000000;stroke-width:1px;stroke-linecap:butt;stroke-linejoin:miter;stroke-opacity:0.27999998"/>
      <g style="stroke:#000000;stroke-opacity:0.27999998" inkscape:transform-center-y="-4.487042" inkscape:transform-center-x="3.2894228" transform="matrix(0.95233068,-0.30506767,0.30506767,0.95233068,-78.790352,133.79462)" id="g4254">
        <path style="fill:none;stroke:#000000;stroke-width:1px;stroke-linecap:butt;stroke-linejoin:miter;stroke-opacity:0.27999998" d="m 374.39612,324.54356 c 0.24672,5.63535 3.25637,7.40261 7.47596,7.47596" id="path4250" inkscape:connector-curvature="0" sodipodi:nodetypes="cc"/>
        <use style="stroke:#000000;stroke-opacity:0.27999998" x="0" y="0" xlink:href="#path4250" id="use4252" transform="matrix(0.54134993,0,0,0.75303458,169.99229,83.616016)" width="1052.3622" height="744.09448"/>
      </g>
    </g>
  </g>
  <metadata>
    <rdf:RDF>
      <cc:Work>
        <dc:format>image/svg+xml</dc:format>
        <dc:type rdf:resource="http://purl.org/dc/dcmitype/StillImage"/>
        <cc:license rdf:resource="http://creativecommons.org/licenses/publicdomain/"/>
        <dc:publisher>
          <cc:Agent rdf:about="http://openclipart.org/">
            <dc:title>Open Clip Art Library</dc:title>
          </cc:Agent>
        </dc:publisher>
        <dc:title>little red octopus</dc:title>
        <dc:date>2013-02-11T17:02:36</dc:date>
        <dc:description/>
        <dc:source>http://openclipart.org/detail/175028/little-red-octopus-by-estitic-175028</dc:source>
        <dc:creator>
          <cc:Agent>
            <dc:title>estitic</dc:title>
          </cc:Agent>
        </dc:creator>
        <dc:subject>
          <rdf:Bag>
            <rdf:li>red</rdf:li>
            <rdf:li>octopus</rdf:li>
            <rdf:li>pulpo</rdf:li>
            <rdf:li>calamar</rdf:li>
          </rdf:Bag>
        </dc:subject>
      </cc:Work>
      <cc:License rdf:about="http://creativecommons.org/licenses/publicdomain/">
        <cc:permits rdf:resource="http://creativecommons.org/ns#Reproduction"/>
        <cc:permits rdf:resource="http://creativecommons.org/ns#Distribution"/>
        <cc:permits rdf:resource="http://creativecommons.org/ns#DerivativeWorks"/>
      </cc:License>
    </rdf:RDF>
  </metadata>
</svg>